\relax 
\providecommand\hyper@newdestlabel[2]{}
\providecommand\HyperFirstAtBeginDocument{\AtBeginDocument}
\HyperFirstAtBeginDocument{\ifx\hyper@anchor\@undefined
\global\let\oldcontentsline\contentsline
\gdef\contentsline#1#2#3#4{\oldcontentsline{#1}{#2}{#3}}
\global\let\oldnewlabel\newlabel
\gdef\newlabel#1#2{\newlabelxx{#1}#2}
\gdef\newlabelxx#1#2#3#4#5#6{\oldnewlabel{#1}{{#2}{#3}}}
\AtEndDocument{\ifx\hyper@anchor\@undefined
\let\contentsline\oldcontentsline
\let\newlabel\oldnewlabel
\fi}
\fi}
\global\let\hyper@last\relax 
\gdef\HyperFirstAtBeginDocument#1{#1}
\providecommand\HyField@AuxAddToFields[1]{}
\providecommand\HyField@AuxAddToCoFields[2]{}
\catcode`"\active
\reset@newl@bel
\select@language{ngerman}
\@writefile{toc}{\select@language{ngerman}}
\@writefile{lof}{\select@language{ngerman}}
\@writefile{lot}{\select@language{ngerman}}
\citation{Elewelle2013}
\@writefile{toc}{\contentsline {section}{\numberline {1}Vorwort}{1}{section.1}}
\@writefile{toc}{\contentsline {section}{\numberline {2}Theoretische Grundlagen}{1}{section.2}}
\@writefile{toc}{\contentsline {subsection}{\numberline {2.1}Was ist eine elektromagnetische Welle ?}{1}{subsection.2.1}}
\@writefile{lof}{\contentsline {figure}{\numberline {1}{\ignorespaces Welle mit unterschiedlichen Wellenl\IeC {\"a}ngen\relax }}{2}{figure.caption.4}}
\@writefile{lof}{\contentsline {figure}{\numberline {2}{\ignorespaces Stehende Welle\relax }}{2}{figure.caption.5}}
\@writefile{lof}{\contentsline {figure}{\numberline {3}{\ignorespaces Feldverlauf\relax }}{3}{figure.caption.6}}
\@writefile{toc}{\contentsline {subsection}{\numberline {2.2}Elektromagnetische Wellen im Raum}{3}{subsection.2.2}}
\@writefile{toc}{\contentsline {subsection}{\numberline {2.3}Aufbau einer Antenne}{3}{subsection.2.3}}
\@writefile{toc}{\contentsline {subsection}{\numberline {2.4}Elektromagnetische Spektrum}{4}{subsection.2.4}}
\@writefile{toc}{\contentsline {subsection}{\numberline {2.5}Richtfunk}{5}{subsection.2.5}}
\@writefile{toc}{\contentsline {subsection}{\numberline {2.6}Yagi-Antenne}{5}{subsection.2.6}}
\@writefile{toc}{\contentsline {subsection}{\numberline {2.7}Beeinflussung durch Witterung}{5}{subsection.2.7}}
\@writefile{toc}{\contentsline {subsubsection}{\numberline {2.7.1}Beeinflussung der Antenne}{5}{subsubsection.2.7.1}}
\@writefile{toc}{\contentsline {subsubsection}{\numberline {2.7.2}Beeinflussung der \IeC {\"U}bertragung}{5}{subsubsection.2.7.2}}
\@writefile{toc}{\contentsline {section}{\numberline {3}Ziele}{5}{section.3}}
\@writefile{toc}{\contentsline {subsection}{\numberline {3.1}Muss-Ziele}{5}{subsection.3.1}}
\@writefile{toc}{\contentsline {subsubsection}{\numberline {3.1.1}Lukrierung der Standorte}{5}{subsubsection.3.1.1}}
\@writefile{toc}{\contentsline {subsubsection}{\numberline {3.1.2}Ermittlung des physikalischen Hintergrunds}{5}{subsubsection.3.1.2}}
\@writefile{toc}{\contentsline {subsubsection}{\numberline {3.1.3}Bauen der Antenne}{5}{subsubsection.3.1.3}}
\@writefile{toc}{\contentsline {subsubsection}{\numberline {3.1.4}Installieren der Systeme}{6}{subsubsection.3.1.4}}
\@writefile{toc}{\contentsline {subsubsection}{\numberline {3.1.5}Messungen und Auswertungen durchf\IeC {\"u}hren}{6}{subsubsection.3.1.5}}
\@writefile{toc}{\contentsline {subsection}{\numberline {3.2}Kann-Ziele}{6}{subsection.3.2}}
\@writefile{toc}{\contentsline {subsubsection}{\numberline {3.2.1}Optimierung der Systeme}{6}{subsubsection.3.2.1}}
\@writefile{toc}{\contentsline {subsection}{\numberline {3.3}Nicht-Ziele}{6}{subsection.3.3}}
\@writefile{toc}{\contentsline {subsubsection}{\numberline {3.3.1}Erstellen einer Bauanleitung}{6}{subsubsection.3.3.1}}
\@writefile{toc}{\contentsline {section}{\numberline {4}Weg der Durchf\IeC {\"u}hrung}{7}{section.4}}
\@writefile{toc}{\contentsline {subsection}{\numberline {4.1}Ist-Erhebung}{7}{subsection.4.1}}
\@writefile{lof}{\contentsline {figure}{\numberline {4}{\ignorespaces Netzabdeckung des Providers A1 in \IeC {\"O}sterreich\relax }}{7}{figure.caption.7}}
\@writefile{lof}{\contentsline {figure}{\numberline {5}{\ignorespaces Netzabdeckung des Providers Drei in \IeC {\"O}sterreich\relax }}{8}{figure.caption.8}}
\@writefile{toc}{\contentsline {subsection}{\numberline {4.2}M\IeC {\"o}glichkeiten der Vernetzung}{8}{subsection.4.2}}
\@writefile{lof}{\contentsline {figure}{\numberline {6}{\ignorespaces Aufbau eines Komplettsystems von GNS Wireless LLC.\relax }}{9}{figure.caption.9}}
\providecommand*\caption@xref[2]{\@setref\relax\@undefined{#1}}
\newlabel{fig:gnskom}{{6}{9}{Aufbau eines Komplettsystems von GNS Wireless LLC.\relax }{figure.caption.9}{}}
\@writefile{toc}{\contentsline {subsubsection}{\numberline {4.2.1}Warum eine Yagi-Antenne?}{9}{subsubsection.4.2.1}}
\@writefile{toc}{\contentsline {subsection}{\numberline {4.3}Standorte}{9}{subsection.4.3}}
\@writefile{lof}{\contentsline {figure}{\numberline {7}{\ignorespaces Bilder von Yagi-Antennen zur Illustration\relax }}{10}{figure.caption.10}}
\@writefile{toc}{\contentsline {subsubsection}{\numberline {4.3.1}TGM}{10}{subsubsection.4.3.1}}
\@writefile{lof}{\contentsline {figure}{\numberline {8}{\ignorespaces TGM - Technologische Gewerbemuseum\relax }}{10}{figure.caption.11}}
\@writefile{toc}{\contentsline {subsubsection}{\numberline {4.3.2}UBIS}{11}{subsubsection.4.3.2}}
\@writefile{lof}{\contentsline {figure}{\numberline {9}{\ignorespaces Geb\IeC {\"a}ude der UBIS Austria GmbH\relax }}{11}{figure.caption.12}}
\@writefile{toc}{\contentsline {subsubsection}{\numberline {4.3.3}Leobendorf}{11}{subsubsection.4.3.3}}
\@writefile{lof}{\contentsline {figure}{\numberline {10}{\ignorespaces Werkstatt des Standorts Leobendorf\relax }}{12}{figure.caption.13}}
\@writefile{toc}{\contentsline {section}{\numberline {5}Arbeitsdurchf\IeC {\"u}hrung}{12}{section.5}}
\@writefile{toc}{\contentsline {subsection}{\numberline {5.1}Lukrierung der Standorte}{12}{subsection.5.1}}
\@writefile{toc}{\contentsline {subsection}{\numberline {5.2}Ermitteln des physikalischen Hintergrunds}{12}{subsection.5.2}}
\@writefile{toc}{\contentsline {subsection}{\numberline {5.3}Aufsetzen der Testumgebung}{12}{subsection.5.3}}
\@writefile{toc}{\contentsline {subsubsection}{\numberline {5.3.1}Bauen der Antenne}{12}{subsubsection.5.3.1}}
\@writefile{toc}{\contentsline {subsubsection}{\numberline {5.3.2}Installieren der Systeme}{12}{subsubsection.5.3.2}}
\@writefile{toc}{\contentsline {subsection}{\numberline {5.4}Durchf\IeC {\"u}hrung der Messungen}{12}{subsection.5.4}}
\@writefile{toc}{\contentsline {subsubsection}{\numberline {5.4.1}Messprotokolle}{12}{subsubsection.5.4.1}}
\@writefile{toc}{\contentsline {subsection}{\numberline {5.5}Auswertung der Messungen}{12}{subsection.5.5}}
\@writefile{toc}{\contentsline {section}{\numberline {6}Ergebnis}{12}{section.6}}
\@writefile{toc}{\contentsline {section}{\numberline {7}Erweiterungsm\IeC {\"o}glichkeiten}{12}{section.7}}
\@writefile{toc}{\contentsline {section}{\numberline {8}Fazit}{14}{section.8}}
\bibstyle{alpha}
\bibdata{references}
\bibcite{Elewelle2013}{{Ele}{}{{}}{{}}}
\providecommand\NAT@force@numbers{}\NAT@force@numbers
