\begin{thebibliography}{SKY13d}

\bibitem[[Ad13]{wiki2013add}
Wikipedia [Addbot].
\newblock Swr meter.
\newblock Online, 02 2013.
\newblock [Zuletzt Abgerufen am 08.05.2013].

\bibitem[BfV13]{bmvit2013afg}
Innovation und~Technologie Bundesministerium~f{\"u}r Verkehr.
\newblock Amateurfunkgesetz.
\newblock Online, 2013.
\newblock [Zuletzt abgerufen am: 06.05.2013].

\bibitem[BS]{brennp2013yagi}
Brennpunkt-SRL.
\newblock Yagi-antenne.
\newblock Online.
\newblock [Zuletzt abgerufen am: 06.05.2013].

\bibitem[Ein13]{wiki2013tgm}
Wikipedia~[Kein Einstein].
\newblock Technologisches gewerbemuseum.
\newblock Online, 2013.
\newblock [Zuletzt abgerufen am: 06.05.2013].

\bibitem[Fin]{heutegeb}
FinanzBeraterForum.at.
\newblock sixb4seven: Sicher \& ertragreich in immobilien investieren.
\newblock Online.
\newblock [Zuletzt abgerufen am: 06.05.2013].

\bibitem[Fir13]{firmabc2013ubis}
FirmenABC.
\newblock Unicredit business integrated solutions austria gmbh.
\newblock Online, 2013.
\newblock [Zuletzt abgerufen am: 06.05.2013].

\bibitem[[Fo13]{wiki2013sat}
Wikipedia [FoxtrottBravo].
\newblock Internetzugang {\"u}ber satellit.
\newblock Online, 2013.
\newblock [Zuletzt abgerufen am: 06.05.2013].

\bibitem[KWI13]{kwi2013tgm}
KWI.
\newblock Tgm wexstra{\ss }e.
\newblock Online, 2013.
\newblock [Zuletzt abgerufen am: 06.05.2013].

\bibitem[Lie11]{oevsv2011freq}
{\"O}VSV~Ortsstelle Lienz.
\newblock Amateurfunk in {\"o}sterreich.
\newblock Online, 2011.
\newblock [Zuletzt abgerufen am: 06.05.2013].

\bibitem[Sch]{schma2013yagi}
Physik Schmager.
\newblock Yagi-antenne ohne mantel.
\newblock Online.
\newblock [Zuletzt abgerufen am: 06.05.2013].

\bibitem[Sch10]{schoa2010anp}
Andreas Schoellhammer.
\newblock Anpassung und zusammenschaltung von antennen, transformation, swr,
  smith-diagramm...
\newblock Online, 02 2010.
\newblock [Zuletzt abgerufen am: 08.05.2013].

\bibitem[sky13a]{skydsl2013sat}
skyDSL.
\newblock Satelliteninternet mit skydsl2+.
\newblock Online, 2013.
\newblock [Zuletzt abgerufen am: 06.05.2013].

\bibitem[sky13b]{skydsl2013price}
skyDSL.
\newblock skydsl tarife im {\"u}berblick.
\newblock Online, 2013.
\newblock [Zuletzt abgerufen am: 06.05.2013].

\bibitem[SKY13c]{sky2013price}
SKYGATE.
\newblock Satellite broadband services.
\newblock Online, 2013.
\newblock [Zuletzt abgerufen am: 06.05.2013].

\bibitem[SKY13d]{sky2013sat}
SKYGATE.
\newblock Satellite communication.
\newblock Online, 2013.
\newblock [Zuletzt abgerufen am: 06.05.2013].

\bibitem[Stu13]{schaerfheim}
Studium.at.
\newblock Dr. adolf sch{\"a}rf-heim.
\newblock Online, 2013.
\newblock [Zuletzt abgerufen am: 06.05.2013].

\bibitem[Wir13]{gns2013wlan}
GNS Wireless.
\newblock Point to point wireless bridge kits.
\newblock Online, 2013.
\newblock [Zuletzt abgerufen am: 06.05.2013].

\bibitem[Yur12]{Yuriy2012}
Yuriy:)Chulkov.
\newblock Google earth id: 75115527.
\newblock Online, Julys 2012.
\newblock [Zuletzt abgerufen am: 08.05.2013].

\end{thebibliography}
