\relax 
\providecommand\hyper@newdestlabel[2]{}
\catcode`"\active
\providecommand\HyperFirstAtBeginDocument{\AtBeginDocument}
\HyperFirstAtBeginDocument{\ifx\hyper@anchor\@undefined
\global\let\oldcontentsline\contentsline
\gdef\contentsline#1#2#3#4{\oldcontentsline{#1}{#2}{#3}}
\global\let\oldnewlabel\newlabel
\gdef\newlabel#1#2{\newlabelxx{#1}#2}
\gdef\newlabelxx#1#2#3#4#5#6{\oldnewlabel{#1}{{#2}{#3}}}
\AtEndDocument{\ifx\hyper@anchor\@undefined
\let\contentsline\oldcontentsline
\let\newlabel\oldnewlabel
\fi}
\fi}
\global\let\hyper@last\relax 
\gdef\HyperFirstAtBeginDocument#1{#1}
\providecommand\HyField@AuxAddToFields[1]{}
\@newglossary{main}{glg}{gls}{glo}
\@istfilename{Diplomarbeit.ist}
\@glsorder{word}
\select@language{ngerman}
\@writefile{toc}{\select@language{ngerman}}
\@writefile{lof}{\select@language{ngerman}}
\@writefile{lot}{\select@language{ngerman}}
\select@language{ngerman}
\@writefile{toc}{\select@language{ngerman}}
\@writefile{lof}{\select@language{ngerman}}
\@writefile{lot}{\select@language{ngerman}}
\providecommand*\caption@xref[2]{\@setref\relax\@undefined{#1}}
\newlabel{fig:tgmlogo}{{\caption@xref {fig:tgmlogo}{ on input line 47}}{1}{}{figure.caption.1}{}}
\select@language{ngerman}
\@writefile{toc}{\select@language{ngerman}}
\@writefile{lof}{\select@language{ngerman}}
\@writefile{lot}{\select@language{ngerman}}
\select@language{ngerman}
\@writefile{toc}{\select@language{ngerman}}
\@writefile{lof}{\select@language{ngerman}}
\@writefile{lot}{\select@language{ngerman}}
\@writefile{toc}{\contentsline {chapter}{Autorenverzeichnis}{x}{chapter*.6}}
\@writefile{lof}{\addvspace {10\p@ }}
\@writefile{lot}{\addvspace {10\p@ }}
\citation{elewelle2013}
\citation{PHEM2007}
\citation{PHEM2007}
\citation{PHEM2007}
\citation{PHEM2007}
\citation{PHEM2007}
\citation{PHEM2007}
\citation{PHEM2007}
\citation{PHEM2007}
\citation{phtab1977}
\citation{PHEM2007}
\citation{PHEM2007}
\citation{PHEM2007}
\citation{PHEM2007}
\citation{elekomp2013}
\citation{PHEM2007}
\citation{PHEM2007}
\citation{richtfunk2913}
\citation{richtfunk2913}
\citation{richtfunk2913}
\citation{richtfunk2913}
\citation{richtfunk2913}
\citation{a12013pic}
\citation{drei2013pic}
\citation{gns2013wlan}
\citation{schma2013yagi}
\citation{brennp2013yagi}
\citation{kwi2013tgm}
\citation{bezmus2013ubis}
\citation{schaerfheim}
\citation{heutegeb}
\citation{Yuriy2012}
\citation{lappi2011bauplan}
\citation{lappi2011bauplan}
\citation{lappi2011bauplan}
\citation{crak2011Calc}
\citation{wiki2013add}
\citation{schoa2010anp}
\citation{schk2007yagi}
\citation{skykanaele}
\citation{end2012}
\citation{schoa2010anp}
\citation{schoa2010anp}
\citation{elewelle2013}
\citation{elewelle2013}
\citation{elewelle2013}
\citation{elewelle2013}
\@writefile{toc}{\contentsline {chapter}{\numberline {1}Theoretische Grundlagen}{1}{chapter.1}}
\@writefile{lof}{\addvspace {10\p@ }}
\@writefile{lot}{\addvspace {10\p@ }}
\newlabel{cha:phy}{{1}{1}{Theoretische Grundlagen}{chapter.1}{}}
\@writefile{toc}{\contentsline {section}{\numberline {1.1}Was ist eine elektromagnetische Welle ?}{1}{section.1.1}}
\@writefile{lof}{\contentsline {figure}{\numberline {1.1}{\ignorespaces Welle mit unterschiedlichen Wellenl\IeC {\"a}ngen \citep  {elewelle2013}\relax }}{1}{figure.caption.9}}
\citation{PHEM2007}
\citation{PHEM2007}
\citation{PHEM2007}
\@writefile{lof}{\contentsline {figure}{\numberline {1.2}{\ignorespaces Stehende Welle \citep  {PHEM2007}\relax }}{2}{figure.caption.10}}
\citation{PHEM2007}
\citation{PHEM2007}
\citation{PHEM2007}
\citation{PHEM2007}
\citation{PHEM2007}
\citation{PHEM2007}
\citation{PHEM2007}
\citation{PHEM2007}
\citation{PHEM2007}
\@writefile{toc}{\contentsline {section}{\numberline {1.2}Elektromagnetische Wellen im Raum}{3}{section.1.2}}
\@writefile{lof}{\contentsline {figure}{\numberline {1.3}{\ignorespaces Magnetfeld eines Verschiebestroms \citep  {PHEM2007}\relax }}{3}{figure.caption.11}}
\citation{PHEM2007}
\citation{PHEM2007}
\citation{PHEM2007}
\citation{PHEM2007}
\citation{PHEM2007}
\citation{PHEM2007}
\citation{PHEM2007}
\@writefile{lof}{\contentsline {figure}{\numberline {1.4}{\ignorespaces Ein elektrisches Feld erzeugt durch Induktion \citep  {PHEM2007}\relax }}{4}{figure.caption.12}}
\@writefile{toc}{\contentsline {section}{\numberline {1.3}Aufbau einer Antenne}{4}{section.1.3}}
\@writefile{lof}{\contentsline {figure}{\numberline {1.5}{\ignorespaces Geschlossener/offener Schwingkreis \citep  {PHEM2007}\relax }}{4}{figure.caption.13}}
\citation{PHEM2007}
\citation{PHEM2007}
\citation{PHEM2007}
\citation{PHEM2007}
\@writefile{lof}{\contentsline {figure}{\numberline {1.6}{\ignorespaces $\frac  {\lambda }{2}$ Dipol \citep  {PHEM2007}\relax }}{5}{figure.caption.14}}
\@writefile{lof}{\contentsline {figure}{\numberline {1.7}{\ignorespaces schwingender Dipol \citep  {PHEM2007}\relax }}{5}{figure.caption.15}}
\citation{PHEM2007}
\citation{PHEM2007}
\citation{PHEM2007}
\citation{PHEM2007}
\citation{PHEM2007}
\@writefile{lof}{\contentsline {figure}{\numberline {1.8}{\ignorespaces Fernfeld eines Dipols \citep  {PHEM2007}\relax }}{6}{figure.caption.16}}
\@writefile{toc}{\contentsline {section}{\numberline {1.4}Wie funktioniert der Empfang von Wellen?}{6}{section.1.4}}
\citation{PHEM2007}
\citation{PHEM2007}
\citation{phtab1977}
\citation{phtab1977}
\@writefile{lof}{\contentsline {figure}{\numberline {1.9}{\ignorespaces Antenne mit mehreren Elementen \citep  {PHEM2007}\relax }}{7}{figure.caption.17}}
\@writefile{toc}{\contentsline {section}{\numberline {1.5}Elektromagnetische Spektrum}{7}{section.1.5}}
\@writefile{lof}{\contentsline {figure}{\numberline {1.10}{\ignorespaces Spektrum der elektromagnetischen Wellen \citep  {phtab1977}\relax }}{7}{figure.caption.18}}
\citation{PHEM2007}
\citation{PHEM2007}
\citation{PHEM2007}
\citation{PHEM2007}
\citation{PHEM2007}
\citation{PHEM2007}
\citation{PHEM2007}
\citation{PHEM2007}
\citation{PHEM2007}
\citation{PHEM2007}
\@writefile{toc}{\contentsline {section}{\numberline {1.6}\IeC {\"U}bertragung der Information}{8}{section.1.6}}
\@writefile{lof}{\contentsline {figure}{\numberline {1.11}{\ignorespaces Vom Sender zum Empf\IeC {\"a}nger \citep  {PHEM2007}\relax }}{8}{figure.caption.19}}
\@writefile{toc}{\contentsline {section}{\numberline {1.7}Die Modulation}{8}{section.1.7}}
\citation{PHEM2007}
\citation{PHEM2007}
\citation{elekomp2013}
\citation{elekomp2013}
\citation{PHEM2007}
\citation{PHEM2007}
\@writefile{lof}{\contentsline {figure}{\numberline {1.12}{\ignorespaces Amplitudenmodulation \citep  {PHEM2007}\relax }}{9}{figure.caption.20}}
\@writefile{lof}{\contentsline {figure}{\numberline {1.13}{\ignorespaces Frequenzmodulation \citep  {PHEM2007}\relax }}{9}{figure.caption.21}}
\@writefile{toc}{\contentsline {section}{\numberline {1.8}Die Bandbreite und die \IeC {\"U}bertragung von Informationen}{9}{section.1.8}}
\@writefile{lof}{\contentsline {figure}{\numberline {1.14}{\ignorespaces Bandbreite \citep  {PHEM2007}\relax }}{9}{figure.caption.22}}
\citation{PHEM2007}
\citation{PHEM2007}
\citation{PHEM2007}
\citation{PHEM2007}
\@writefile{lof}{\contentsline {figure}{\numberline {1.15}{\ignorespaces Koxialkabel \citep  {elekomp2013}\relax }}{10}{figure.caption.23}}
\@writefile{toc}{\contentsline {section}{\numberline {1.9}Empfang der elektromagnetischen Wellen}{10}{section.1.9}}
\@writefile{lof}{\contentsline {figure}{\numberline {1.16}{\ignorespaces Abstimmung des Schwingkreises \citep  {PHEM2007}\relax }}{10}{figure.caption.24}}
\@writefile{lof}{\contentsline {figure}{\numberline {1.17}{\ignorespaces Umwandlung der Modulation \citep  {PHEM2007}\relax }}{10}{figure.caption.25}}
\@writefile{toc}{\contentsline {section}{\numberline {1.10}Kenngr\IeC {\"o}\IeC {\ss }en einer Antenne}{10}{section.1.10}}
\citation{end2012}
\citation{end2012}
\citation{end2012}
\citation{end2012}
\citation{end2012}
\@writefile{toc}{\contentsline {subsection}{\numberline {1.10.1}Antennentypen}{11}{subsection.1.10.1}}
\@writefile{toc}{\contentsline {subsection}{\numberline {1.10.2}Rundumstrahlende Antenne}{11}{subsection.1.10.2}}
\@writefile{toc}{\contentsline {subsection}{\numberline {1.10.3}Richtantennen}{11}{subsection.1.10.3}}
\@writefile{toc}{\contentsline {subsection}{\numberline {1.10.4}Sektorantennen}{11}{subsection.1.10.4}}
\@writefile{toc}{\contentsline {subsection}{\numberline {1.10.5}Der Antennengewinn}{11}{subsection.1.10.5}}
\@writefile{toc}{\contentsline {subsection}{\numberline {1.10.6}Stecker und Kabelverbindungen}{11}{subsection.1.10.6}}
\citation{elekompp2013}
\citation{elekompp2013}
\citation{elekompp2013}
\citation{elekompp2013}
\citation{elekompp2013}
\citation{end2012}
\citation{end2012}
\citation{end2012}
\citation{richtfunk2913}
\citation{richtfunk2913}
\citation{richtfunk2913}
\@writefile{toc}{\contentsline {subsection}{\numberline {1.10.7}Polarisation}{12}{subsection.1.10.7}}
\@writefile{toc}{\contentsline {subsection}{\numberline {1.10.8}Richtcharakteristik}{12}{subsection.1.10.8}}
\@writefile{toc}{\contentsline {subsection}{\numberline {1.10.9} Reflektionen}{12}{subsection.1.10.9}}
\@writefile{toc}{\contentsline {subsection}{\numberline {1.10.10}Interferenz}{12}{subsection.1.10.10}}
\@writefile{toc}{\contentsline {subsection}{\numberline {1.10.11}D\IeC {\"a}mpfung}{12}{subsection.1.10.11}}
\citation{richtfunk2913}
\citation{richtfunk2913}
\@writefile{toc}{\contentsline {section}{\numberline {1.11}Richtfunk}{13}{section.1.11}}
\@writefile{toc}{\contentsline {subsection}{\numberline {1.11.1}Wieso wird Richtfunk verwendet?}{13}{subsection.1.11.1}}
\@writefile{toc}{\contentsline {subsection}{\numberline {1.11.2}Einsatz von optischen und Mikrowellenrichtfunk}{13}{subsection.1.11.2}}
\@writefile{lot}{\contentsline {table}{\numberline {1.1}{\ignorespaces D\IeC {\"a}mpfung durch Materialien \citep  {end2012}\relax }}{13}{table.caption.26}}
\citation{richtfunk2913}
\citation{richtfunk2913}
\citation{richtfunk2913}
\citation{richtfunk2913}
\citation{richtfunk2913}
\citation{richtfunk2913}
\citation{richtfunk2913}
\citation{richtfunk2913}
\citation{richtfunk2913}
\citation{richtfunk2913}
\citation{richtfunk2913}
\citation{richtfunk2913}
\citation{richtfunk2913}
\@writefile{toc}{\contentsline {subsection}{\numberline {1.11.3}Definition der Verf\IeC {\"u}gbarkeit}{14}{subsection.1.11.3}}
\@writefile{toc}{\contentsline {subsection}{\numberline {1.11.4}Redundanzanwendungen}{14}{subsection.1.11.4}}
\@writefile{lof}{\contentsline {figure}{\numberline {1.18}{\ignorespaces ohne Redundanz \citep  {richtfunk2913}\relax }}{14}{figure.caption.28}}
\@writefile{lof}{\contentsline {figure}{\numberline {1.19}{\ignorespaces mit Redundanz \citep  {richtfunk2913}\relax }}{14}{figure.caption.29}}
\citation{richtfunk2913}
\@writefile{lof}{\contentsline {figure}{\numberline {1.20}{\ignorespaces Zwei Verbindungen ohne Redundanz \citep  {richtfunk2913}\relax }}{15}{figure.caption.30}}
\@writefile{lof}{\contentsline {figure}{\numberline {1.21}{\ignorespaces Verbindung mit mehreren Wegen \citep  {richtfunk2913}\relax }}{15}{figure.caption.31}}
\@writefile{lof}{\contentsline {figure}{\numberline {1.22}{\ignorespaces Verbindung wird aufgeteilt \citep  {richtfunk2913}\relax }}{15}{figure.caption.32}}
\citation{cnet2013}
\citation{cnet2013}
\citation{au2012}
\@writefile{toc}{\contentsline {section}{\numberline {1.12}Yagi-Antenne}{16}{section.1.12}}
\@writefile{toc}{\contentsline {subsection}{\numberline {1.12.1}Berechnung einer Yagi-Antenne}{16}{subsection.1.12.1}}
\@writefile{toc}{\contentsline {subsection}{\numberline {1.12.2}Beeinflussung durch Witterung}{16}{subsection.1.12.2}}
\@writefile{toc}{\contentsline {chapter}{\numberline {2}Ziele}{19}{chapter.2}}
\@writefile{lof}{\addvspace {10\p@ }}
\@writefile{lot}{\addvspace {10\p@ }}
\@writefile{toc}{\contentsline {section}{\numberline {2.1}Muss-Ziele}{19}{section.2.1}}
\@writefile{toc}{\contentsline {subsection}{\numberline {2.1.1}Lukrierung der Standorte}{20}{subsection.2.1.1}}
\@writefile{toc}{\contentsline {subsection}{\numberline {2.1.2}Ermittlung des physikalischen Hintergrunds}{20}{subsection.2.1.2}}
\@writefile{toc}{\contentsline {subsection}{\numberline {2.1.3}Bauen der Antenne}{20}{subsection.2.1.3}}
\@writefile{toc}{\contentsline {subsection}{\numberline {2.1.4}Installieren der Systeme}{21}{subsection.2.1.4}}
\@writefile{toc}{\contentsline {subsection}{\numberline {2.1.5}Messungen und Auswertungen durchf\IeC {\"u}hren}{21}{subsection.2.1.5}}
\@writefile{toc}{\contentsline {section}{\numberline {2.2}Kann-Ziele}{21}{section.2.2}}
\@writefile{toc}{\contentsline {subsection}{\numberline {2.2.1}Optimierung der Systeme}{22}{subsection.2.2.1}}
\@writefile{toc}{\contentsline {section}{\numberline {2.3}Nicht-Ziele}{22}{section.2.3}}
\@writefile{toc}{\contentsline {subsection}{\numberline {2.3.1}Erstellen einer Bauanleitung}{22}{subsection.2.3.1}}
\citation{a12013pic}
\citation{a12013pic}
\citation{drei2013pic}
\citation{drei2013pic}
\@writefile{toc}{\contentsline {chapter}{\numberline {3}Weg der Durchf\IeC {\"u}hrung}{23}{chapter.3}}
\@writefile{lof}{\addvspace {10\p@ }}
\@writefile{lot}{\addvspace {10\p@ }}
\@writefile{toc}{\contentsline {section}{\numberline {3.1}Ist-Erhebung}{23}{section.3.1}}
\@writefile{lof}{\contentsline {figure}{\numberline {3.1}{\ignorespaces Netzabdeckung des Providers A1 in \IeC {\"O}sterreich \cite  {a12013pic}\relax }}{24}{figure.caption.33}}
\newlabel{fig:na1}{{3.1}{24}{Netzabdeckung des Providers A1 in Österreich \cite {a12013pic}\relax }{figure.caption.33}{}}
\@writefile{lof}{\contentsline {figure}{\numberline {3.2}{\ignorespaces Netzabdeckung des Providers Drei in \IeC {\"O}sterreich \cite  {drei2013pic}\relax }}{24}{figure.caption.34}}
\newlabel{fig:np3}{{3.2}{24}{Netzabdeckung des Providers Drei in Österreich \cite {drei2013pic}\relax }{figure.caption.34}{}}
\citation{sky2013sat}
\citation{skydsl2013sat}
\citation{sky2013price}
\citation{skydsl2013price}
\citation{wiki2013sat}
\citation{gns2013wlan}
\citation{gns2013wlan}
\citation{bmvit2013afg}
\citation{oevsv2011freq}
\@writefile{toc}{\contentsline {section}{\numberline {3.2}M\IeC {\"o}glichkeiten der Vernetzung}{25}{section.3.2}}
\citation{schma2013yagi}
\citation{brennp2013yagi}
\citation{schma2013yagi}
\citation{brennp2013yagi}
\@writefile{lof}{\contentsline {figure}{\numberline {3.3}{\ignorespaces Aufbau eines Komplettsystems von GNS Wireless LLC. \cite  {gns2013wlan}\relax }}{26}{figure.caption.35}}
\newlabel{fig:gnskom}{{3.3}{26}{Aufbau eines Komplettsystems von GNS Wireless LLC. \cite {gns2013wlan}\relax }{figure.caption.35}{}}
\@writefile{toc}{\contentsline {subsection}{\numberline {3.2.1}Warum eine Yagi-Antenne?}{26}{subsection.3.2.1}}
\citation{wiki2013tgm}
\citation{kwi2013tgm}
\citation{kwi2013tgm}
\@writefile{lof}{\contentsline {figure}{\numberline {3.4}{\ignorespaces Bilder von Yagi-Antennen zur Illustration \cite  {schma2013yagi} \cite  {brennp2013yagi}\relax }}{27}{figure.caption.36}}
\@writefile{toc}{\contentsline {section}{\numberline {3.3}Standorte}{27}{section.3.3}}
\@writefile{toc}{\contentsline {subsection}{\numberline {3.3.1}TGM}{27}{subsection.3.3.1}}
\@writefile{lof}{\contentsline {figure}{\numberline {3.5}{\ignorespaces TGM - Technologische Gewerbemuseum \cite  {kwi2013tgm}\relax }}{28}{figure.caption.37}}
\citation{bezmus2013ubis}
\citation{bezmus2013ubis}
\citation{firmabc2013ubis}
\@writefile{toc}{\contentsline {subsection}{\numberline {3.3.2}UBIS}{29}{subsection.3.3.2}}
\@writefile{lof}{\contentsline {figure}{\numberline {3.6}{\ignorespaces Geb\IeC {\"a}ude der UBIS Austria GmbH \cite  {bezmus2013ubis}\relax }}{29}{figure.caption.38}}
\@writefile{toc}{\contentsline {subsection}{\numberline {3.3.3}Leobendorf}{30}{subsection.3.3.3}}
\@writefile{lof}{\contentsline {figure}{\numberline {3.7}{\ignorespaces Arbeitsplatz am Standort Leobendorf\relax }}{30}{figure.caption.39}}
\@writefile{toc}{\contentsline {chapter}{\numberline {4}Arbeitsdurchf\IeC {\"u}hrung}{31}{chapter.4}}
\@writefile{lof}{\addvspace {10\p@ }}
\@writefile{lot}{\addvspace {10\p@ }}
\@writefile{toc}{\contentsline {section}{\numberline {4.1}Lukrierung der Standorte}{31}{section.4.1}}
\@writefile{toc}{\contentsline {subsection}{\numberline {4.1.1}TGM}{31}{subsection.4.1.1}}
\@writefile{toc}{\contentsline {subsection}{\numberline {4.1.2}UBIS}{32}{subsection.4.1.2}}
\citation{schaerfheim}
\citation{schaerfheim}
\citation{heutegeb}
\citation{heutegeb}
\@writefile{lof}{\contentsline {figure}{\numberline {4.1}{\ignorespaces M\IeC {\"o}glicher Standort: Dr. Adolf Sch\IeC {\"a}rf-Heim 1200 Wien\citep  {schaerfheim}\relax }}{33}{figure.caption.40}}
\@writefile{lof}{\contentsline {figure}{\numberline {4.2}{\ignorespaces M\IeC {\"o}glicher Standort: Heute-Verlagsgeb\IeC {\"a}ude 1190 Wien\citep  {heutegeb}\relax }}{33}{figure.caption.41}}
\citation{Yuriy2012}
\citation{Yuriy2012}
\@writefile{lof}{\contentsline {figure}{\numberline {4.3}{\ignorespaces M\IeC {\"o}glicher Standort: Krone-Verlagsgeb\IeC {\"a}ude 1190 Wien\citep  {Yuriy2012}\relax }}{34}{figure.caption.42}}
\@writefile{lof}{\contentsline {figure}{\numberline {4.4}{\ignorespaces Sicht vom Zweitstandort UBIS Austria auf das TGM\relax }}{34}{figure.4.4}}
\@writefile{toc}{\contentsline {subsection}{\numberline {4.1.3}Leobendorf}{35}{subsection.4.1.3}}
\@writefile{toc}{\contentsline {section}{\numberline {4.2}Ermitteln des physikalischen Hintergrunds}{35}{section.4.2}}
\newlabel{sec:phy}{{4.2}{35}{Ermitteln des physikalischen Hintergrunds}{section.4.2}{}}
\@writefile{lot}{\contentsline {table}{\numberline {4.1}{\ignorespaces \IeC {\"U}bersicht der ben\IeC {\"o}tigten Materialien im Projekt\relax }}{36}{table.4.1}}
\citation{lappi2011bauplan}
\citation{lappi2011bauplan}
\@writefile{toc}{\contentsline {section}{\numberline {4.3}Aufsetzen der Testumgebung}{37}{section.4.3}}
\@writefile{lot}{\contentsline {table}{\numberline {4.2}{\ignorespaces \IeC {\"U}bersicht der Projektausgaben f\IeC {\"u}r etwaige Materialien\relax }}{37}{table.4.2}}
\@writefile{toc}{\contentsline {subsection}{\numberline {4.3.1}Bauen der Antenne}{37}{subsection.4.3.1}}
\newlabel{cha:bau}{{4.3.1}{37}{Bauen der Antenne}{subsection.4.3.1}{}}
\@writefile{lof}{\contentsline {figure}{\numberline {4.5}{\ignorespaces Skizze der Yagi-Antenne mit geforderten Ma\IeC {\ss }en\cite  {lappi2011bauplan}\relax }}{39}{figure.caption.43}}
\newlabel{fig:schema}{{4.5}{39}{Skizze der Yagi-Antenne mit geforderten Maßen\cite {lappi2011bauplan}\relax }{figure.caption.43}{}}
\citation{lappi2011bauplan}
\citation{lappi2011bauplan}
\citation{lappi2011bauplan}
\citation{lappi2011bauplan}
\@writefile{lof}{\contentsline {figure}{\numberline {4.6}{\ignorespaces Vierkantstab mit Drahtst\IeC {\"u}cken als Schwingk\IeC {\"o}rper \cite  {lappi2011bauplan}\relax }}{40}{figure.caption.44}}
\@writefile{lof}{\contentsline {figure}{\numberline {4.7}{\ignorespaces Zuschneiden des Dipols mittels Papierschneider \cite  {lappi2011bauplan}\relax }}{40}{figure.caption.45}}
\@writefile{lof}{\contentsline {figure}{\numberline {4.8}{\ignorespaces Funktionst\IeC {\"u}chtige Yagi-Antenne\relax }}{41}{figure.caption.46}}
\newlabel{fig:dipol}{{4.8}{41}{Funktionstüchtige Yagi-Antenne\relax }{figure.caption.46}{}}
\@writefile{lof}{\contentsline {figure}{\numberline {4.9}{\ignorespaces Abgemanteltes und abisoliertes Koaxialkabel\relax }}{42}{figure.caption.47}}
\@writefile{lof}{\contentsline {figure}{\numberline {4.10}{\ignorespaces Kabel mit angel\IeC {\"o}tetem Steckerstift\relax }}{42}{figure.caption.48}}
\@writefile{lof}{\contentsline {figure}{\numberline {4.11}{\ignorespaces fertiger Kabelanschluss\relax }}{43}{figure.caption.49}}
\@writefile{lof}{\contentsline {figure}{\numberline {4.12}{\ignorespaces Nahaufnahme eines angebrachten F\IeC {\"u}hrungselements\relax }}{44}{figure.caption.50}}
\@writefile{lof}{\contentsline {figure}{\numberline {4.13}{\ignorespaces Yagi-Antenne mit F\IeC {\"u}hrungselementen\relax }}{44}{figure.caption.51}}
\@writefile{lof}{\contentsline {figure}{\numberline {4.14}{\ignorespaces Frontende der verschlossenen Yagi-Antenne\relax }}{45}{figure.caption.52}}
\@writefile{lof}{\contentsline {figure}{\numberline {4.15}{\ignorespaces Hinteres Ende der verschlossenen Yagi-Antenne\relax }}{45}{figure.caption.53}}
\citation{ddwrt2013wiki}
\citation{ddwrt2013down}
\citation{ddwrt2013wiki}
\citation{ddwrt2013wiki}
\citation{ddwrt2013wiki}
\@writefile{lof}{\contentsline {figure}{\numberline {4.16}{\ignorespaces Antennenbefestigungen auf beiden verwendeten Stativen\relax }}{46}{figure.caption.54}}
\@writefile{toc}{\contentsline {subsection}{\numberline {4.3.2}Aufsetzen und Konfigurieren der Router}{46}{subsection.4.3.2}}
\@writefile{lof}{\contentsline {figure}{\numberline {4.17}{\ignorespaces Ausschnitt aus dem Reiter WLAN/Basis-Einstellungen des DD-WRT Konfigurationsmen\IeC {\"u}s des Gateways\relax }}{47}{figure.caption.55}}
\@writefile{lof}{\contentsline {figure}{\numberline {4.18}{\ignorespaces Ausschnitt aus dem Reiter WLAN/WLAN-Sicherheit des DD-WRT Konfigurationsmen\IeC {\"u}s des Gateways\relax }}{48}{figure.caption.56}}
\@writefile{lof}{\contentsline {figure}{\numberline {4.19}{\ignorespaces Ausschnitt aus dem Reiter WLAN/Erweiterte Einstellungen des DD-WRT Konfigurationsmen\IeC {\"u}s des Gateways\relax }}{48}{figure.caption.56}}
\@writefile{lof}{\contentsline {figure}{\numberline {4.20}{\ignorespaces Ausschnitte aus dem Reiter WLAN/WDS des DD-WRT Konfigurationsmen\IeC {\"u}s des Gateways\relax }}{49}{figure.caption.57}}
\@writefile{lof}{\contentsline {figure}{\numberline {4.21}{\ignorespaces Ausschnitte aus dem Reiter Setup/Basis-Setup des DD-WRT Konfigurationsmen\IeC {\"u}s des Gateways\relax }}{49}{figure.caption.58}}
\@writefile{lof}{\contentsline {figure}{\numberline {4.22}{\ignorespaces Ausschnitte aus dem Reiter Sicherheit/Firewall des DD-WRT Konfigurationsmen\IeC {\"u}s des Gateways\relax }}{50}{figure.caption.59}}
\@writefile{lof}{\contentsline {figure}{\numberline {4.23}{\ignorespaces Ausschnitte aus dem Reiter Administration/Management des DD-WRT Konfigurationsmen\IeC {\"u}s des Gateways\relax }}{50}{figure.caption.60}}
\@writefile{lof}{\contentsline {figure}{\numberline {4.24}{\ignorespaces Ausschnitte aus dem Reiter Setup/Basis-Setup des DD-WRT Konfigurationsmen\IeC {\"u}s des Knotenpunktes\relax }}{51}{figure.caption.61}}
\@writefile{lof}{\contentsline {figure}{\numberline {4.25}{\ignorespaces Ausschnitt aus dem Reiter WLAN/Basis-Einstellungen des DD-WRT Konfigurationsmen\IeC {\"u}s des Knotenpunktes\relax }}{51}{figure.caption.61}}
\@writefile{lof}{\contentsline {figure}{\numberline {4.26}{\ignorespaces Ausschnitt aus dem Reiter WLAN/WLAN-Sicherheit des DD-WRT Konfigurationsmen\IeC {\"u}s des Knotenpunktes\relax }}{51}{figure.caption.61}}
\@writefile{lof}{\contentsline {figure}{\numberline {4.27}{\ignorespaces Ausschnitt aus dem Reiter WLAN/Erweiterte Einstellungen des DD-WRT Konfigurationsmen\IeC {\"u}s des Kontenpunktes\relax }}{52}{figure.caption.62}}
\@writefile{lof}{\contentsline {figure}{\numberline {4.28}{\ignorespaces Ausschnitte aus dem Reiter WLAN/WDS des DD-WRT Konfigurationsmen\IeC {\"u}s des Knotenpunktes\relax }}{52}{figure.caption.62}}
\@writefile{lof}{\contentsline {figure}{\numberline {4.29}{\ignorespaces Ausschnitte aus dem Reiter Sicherheit/Firewall des DD-WRT Konfigurationsmen\IeC {\"u}s des Knotenpunktes\relax }}{53}{figure.caption.63}}
\@writefile{lof}{\contentsline {figure}{\numberline {4.30}{\ignorespaces Ausschnitte aus dem Reiter Administration/Management des DD-WRT Konfigurationsmen\IeC {\"u}s des Knotenpunktes\relax }}{53}{figure.caption.63}}
\@writefile{toc}{\contentsline {section}{\numberline {4.4}Durchf\IeC {\"u}hrung der Messungen}{53}{section.4.4}}
\@writefile{toc}{\contentsline {subsection}{\numberline {4.4.1}Erste Testmessung}{54}{subsection.4.4.1}}
\@writefile{lof}{\contentsline {figure}{\numberline {4.31}{\ignorespaces Bandbreitenverlauf der ersten Testmessung am 13.3.2013\relax }}{54}{figure.caption.64}}
\newlabel{fig:test}{{4.31}{54}{Bandbreitenverlauf der ersten Testmessung am 13.3.2013\relax }{figure.caption.64}{}}
\@writefile{toc}{\contentsline {subsection}{\numberline {4.4.2}Messung bei Schneefall}{54}{subsection.4.4.2}}
\@writefile{lof}{\contentsline {figure}{\numberline {4.32}{\ignorespaces Bandbreitenverlauf der ersten Messung bei Schneefall am 14.3.2013\relax }}{55}{figure.caption.65}}
\newlabel{fig:messschnee}{{4.32}{55}{Bandbreitenverlauf der ersten Messung bei Schneefall am 14.3.2013\relax }{figure.caption.65}{}}
\@writefile{toc}{\contentsline {subsection}{\numberline {4.4.3}Messung bei bew\IeC {\"o}lktem Himmel/leichtem Regen}{56}{subsection.4.4.3}}
\@writefile{lof}{\contentsline {figure}{\numberline {4.33}{\ignorespaces Bandbreitenverlauf der zweiten Messung bei leichtem Regen und bew\IeC {\"o}lktem Himmel am 21.3.2013\relax }}{56}{figure.caption.66}}
\newlabel{fig:messregen}{{4.33}{56}{Bandbreitenverlauf der zweiten Messung bei leichtem Regen und bewölktem Himmel am 21.3.2013\relax }{figure.caption.66}{}}
\@writefile{toc}{\contentsline {subsection}{\numberline {4.4.4}Messung bei Sonnenschein}{57}{subsection.4.4.4}}
\@writefile{lof}{\contentsline {figure}{\numberline {4.34}{\ignorespaces Bandbreitenverlauf der dritten Messung kaum bew\IeC {\"o}lktem Himmel und Sonnenschein am 18.4.2013\relax }}{57}{figure.caption.67}}
\newlabel{fig:messsonne}{{4.34}{57}{Bandbreitenverlauf der dritten Messung kaum bewölktem Himmel und Sonnenschein am 18.4.2013\relax }{figure.caption.67}{}}
\citation{crak2011Calc}
\citation{crak2011Calc}
\@writefile{toc}{\contentsline {chapter}{\numberline {5}Ergebnis}{59}{chapter.5}}
\@writefile{lof}{\addvspace {10\p@ }}
\@writefile{lot}{\addvspace {10\p@ }}
\newlabel{cha:erg}{{5}{59}{Ergebnis}{chapter.5}{}}
\@writefile{lof}{\contentsline {figure}{\numberline {5.1}{\ignorespaces Diagramm bei dem die D\IeC {\"a}mpfung des Signals durch die verschiedenen Wetterverh\IeC {\"a}ltnisse beeinflusst werden \cite  {crak2011Calc}\relax }}{60}{figure.caption.68}}
\newlabel{fig:wettereinfluss}{{5.1}{60}{Diagramm bei dem die Dämpfung des Signals durch die verschiedenen Wetterverhältnisse beeinflusst werden \cite {crak2011Calc}\relax }{figure.caption.68}{}}
\citation{schoa2010anp}
\citation{wiki2013add}
\citation{wiki2013add}
\citation{schoa2010anp}
\@writefile{toc}{\contentsline {chapter}{\numberline {6}Erweiterungsm\IeC {\"o}glichkeiten}{63}{chapter.6}}
\@writefile{lof}{\addvspace {10\p@ }}
\@writefile{lot}{\addvspace {10\p@ }}
\@writefile{toc}{\contentsline {section}{\numberline {6.1}Allgemein}{63}{section.6.1}}
\@writefile{toc}{\contentsline {section}{\numberline {6.2}Standing Wave Ratio}{63}{section.6.2}}
\citation{schoa2010anp}
\citation{schoa2010anp}
\citation{schoa2010anp}
\citation{schoa2010anp}
\citation{schoa2010anp}
\citation{schoa2010anp}
\@writefile{lof}{\contentsline {figure}{\numberline {6.1}{\ignorespaces Ein einfaches SWR Meter, mit einer POWER und einer SWR Anzeige \cite  {wiki2013add}\relax }}{64}{figure.caption.69}}
\newlabel{fig:swrmeter}{{6.1}{64}{Ein einfaches SWR Meter, mit einer POWER und einer SWR Anzeige \cite {wiki2013add}\relax }{figure.caption.69}{}}
\@writefile{lot}{\contentsline {table}{\numberline {6.1}{\ignorespaces Tabelle, die zu jedem SWR-Wert die reflektierte Leistung und 2 Widerst\IeC {\"a}nde, bei dem er zustande kommt, veranschaulicht \cite  {schoa2010anp}\relax }}{65}{table.caption.70}}
\newlabel{tab:swrtab}{{6.1}{65}{Tabelle, die zu jedem SWR-Wert die reflektierte Leistung und 2 Widerstände, bei dem er zustande kommt, veranschaulicht \cite {schoa2010anp}\relax }{table.caption.70}{}}
\citation{schoa2010anp}
\citation{schoa2010anp}
\citation{schoa2010anp}
\citation{schoa2010anp}
\citation{schoa2010anp}
\citation{schoa2010anp}
\@writefile{toc}{\contentsline {section}{\numberline {6.3}Transformation \IeC {\"u}ber ein Kabel}{66}{section.6.3}}
\citation{schoa2010anp}
\citation{schoa2010anp}
\citation{schoa2010anp}
\citation{schoa2010anp}
\citation{schoa2010anp}
\citation{schk2007yagi}
\citation{schk2007yagi}
\@writefile{lof}{\contentsline {figure}{\numberline {6.2}{\ignorespaces Ein Kabel als Transformator \cite  {schoa2010anp}\relax }}{67}{figure.caption.71}}
\newlabel{fig:trans}{{6.2}{67}{Ein Kabel als Transformator \cite {schoa2010anp}\relax }{figure.caption.71}{}}
\citation{sky2013vergleich}
\citation{sky2013vergleich}
\citation{sky2013vergleich}
\@writefile{lot}{\contentsline {table}{\numberline {6.2}{\ignorespaces Tabelle, welche f\IeC {\"u}r ${Z_{in}}$=50$\Omega $ gilt \cite  {schoa2010anp}\relax }}{68}{table.caption.72}}
\newlabel{tab:zintab}{{6.2}{68}{Tabelle, welche für ${Z_{in}}$=50$\Omega $ gilt \cite {schoa2010anp}\relax }{table.caption.72}{}}
\@writefile{toc}{\contentsline {section}{\numberline {6.4}Optimierung einer Antenne}{68}{section.6.4}}
\@writefile{toc}{\contentsline {section}{\numberline {6.5}Wechseln der Frequenz}{68}{section.6.5}}
\@writefile{lof}{\contentsline {figure}{\numberline {6.3}{\ignorespaces Screenshot des Yagi Designprogramms "Yagi Modeller" \cite  {schk2007yagi}\relax }}{69}{figure.caption.73}}
\newlabel{fig:model}{{6.3}{69}{Screenshot des Yagi Designprogramms "Yagi Modeller" \cite {schk2007yagi}\relax }{figure.caption.73}{}}
\@writefile{toc}{\contentsline {chapter}{\numberline {7}Fazit}{71}{chapter.7}}
\@writefile{lof}{\addvspace {10\p@ }}
\@writefile{lot}{\addvspace {10\p@ }}
\@writefile{toc}{\contentsline {section}{\numberline {7.1}Verbesserung bereits bestehender Systeme}{71}{section.7.1}}
\@writefile{toc}{\contentsline {subsection}{\numberline {7.1.1}Verbesserung der Verkabelung}{71}{subsection.7.1.1}}
\citation{skykanaele}
\citation{skykanaele}
\citation{cantenna}
\@writefile{toc}{\contentsline {subsection}{\numberline {7.1.2}Verbesserung der Router}{72}{subsection.7.1.2}}
\@writefile{lof}{\contentsline {figure}{\numberline {7.1}{\ignorespaces Grafische Veranschaulichung der WLAN-Kan\IeC {\"a}le. Oben: Amerika, Unten: Europa \citep  {skykanaele}\relax }}{73}{figure.caption.74}}
\newlabel{fig:wlankan}{{7.1}{73}{Grafische Veranschaulichung der WLAN-Kanäle. Oben: Amerika, Unten: Europa \citep {skykanaele}\relax }{figure.caption.74}{}}
\@writefile{toc}{\contentsline {subsection}{\numberline {7.1.3}Wechsel der Antenne}{73}{subsection.7.1.3}}
\@writefile{toc}{\contentsline {section}{\numberline {7.2}Folgeprojekte}{73}{section.7.2}}
\@writefile{toc}{\contentsline {subsection}{\numberline {7.2.1}Ber\IeC {\"u}cksichtigung mehrerer Faktoren}{74}{subsection.7.2.1}}
\@writefile{toc}{\contentsline {subsection}{\numberline {7.2.2}Vernetzung eines Skigebiets}{74}{subsection.7.2.2}}
\citation{*}
\bibstyle{alpha}
\bibdata{references}
\bibcite{wiki2013add}{{[Ad13}{}{{}}{{}}}
\bibcite{a12013pic}{{AG13}{}{{}}{{}}}
\bibcite{bezmus2013ubis}{{Bez13}{}{{}}{{}}}
\bibcite{bmvit2013afg}{{BfV13}{}{{}}{{}}}
\bibcite{brennp2013yagi}{{BS}{}{{}}{{}}}
\bibcite{crak2011Calc}{{Cra11}{}{{}}{{}}}
\bibcite{PHEM2007}{{CS07}{}{{}}{{}}}
\bibcite{wiki2013tgm}{{Ein13}{}{{}}{{}}}
\bibcite{elekompp2013}{{EKa}{}{{}}{{}}}
\bibcite{elekomp2013}{{EKb}{}{{}}{{}}}
\bibcite{end2012}{{End12}{}{{}}{{}}}
\bibcite{heutegeb}{{Fin}{}{{}}{{}}}
\bibcite{firmabc2013ubis}{{Fir13}{}{{}}{{}}}
\bibcite{richtfunk2913}{{fIumm}{}{{}}{{}}}
\bibcite{wiki2013sat}{{[Fo13}{}{{}}{{}}}
\bibcite{drei2013pic}{{Gmb13a}{}{{}}{{}}}
\bibcite{ddwrt2013wiki}{{Gmb13b}{}{{}}{{}}}
\bibcite{ddwrt2013down}{{Gmb13c}{}{{}}{{}}}
\bibcite{elewelle2013}{{Gre}{}{{}}{{}}}
\bibcite{kwi2013tgm}{{KWI13}{}{{}}{{}}}
\bibcite{lappi2011bauplan}{{Lap11}{}{{}}{{}}}
\bibcite{oevsv2011freq}{{Lie11}{}{{}}{{}}}
\bibcite{cnet2013}{{Pos10}{}{{}}{{}}}
\bibcite{au2012}{{rDG11}{}{{}}{{}}}
\bibcite{cantenna}{{Reh07}{}{{}}{{}}}
\bibcite{schma2013yagi}{{Sch}{}{{}}{{}}}
\bibcite{phtab1977}{{Sch77}{}{{}}{{}}}
\bibcite{schk2007yagi}{{Sch07}{}{{}}{{}}}
\bibcite{schoa2010anp}{{Sch10}{}{{}}{{}}}
\bibcite{sky2013vergleich}{{Sky11a}{}{{}}{{}}}
\bibcite{skykanaele}{{Sky11b}{}{{}}{{}}}
\bibcite{skydsl2013sat}{{sky13a}{}{{}}{{}}}
\bibcite{skydsl2013price}{{sky13b}{}{{}}{{}}}
\bibcite{sky2013price}{{SKY13c}{}{{}}{{}}}
\bibcite{sky2013sat}{{SKY13d}{}{{}}{{}}}
\bibcite{schaerfheim}{{Stu13}{}{{}}{{}}}
\bibcite{gns2013wlan}{{Wir13}{}{{}}{{}}}
\bibcite{Yuriy2012}{{Yur12}{}{{}}{{}}}
\@writefile{toc}{\contentsline {chapter}{\numberline {A}Zeitaufzeichnungen}{79}{appendix.A}}
\@writefile{lof}{\addvspace {10\p@ }}
\@writefile{lot}{\addvspace {10\p@ }}
\@writefile{toc}{\contentsline {section}{\numberline {A.1}Maximilian Augustin Ernst}{80}{section.A.1}}
\@writefile{lot}{\contentsline {table}{\numberline {A.1}{\ignorespaces Zeitaufzeichnung des Projektmitglieds Maximilian Augustin Ernst in der Projektphase 'Dokumentation'\relax }}{80}{table.caption.76}}
\newlabel{tab:ernstDok}{{A.1}{80}{Zeitaufzeichnung des Projektmitglieds Maximilian Augustin Ernst in der Projektphase 'Dokumentation'\relax }{table.caption.76}{}}
\@writefile{lot}{\contentsline {table}{\numberline {A.2}{\ignorespaces Zeitaufzeichnung des Projektmitglieds Maximilian Augustin Ernst in der Projektphase 'phys. Background'\relax }}{80}{table.caption.77}}
\newlabel{tab:ernstPhys}{{A.2}{80}{Zeitaufzeichnung des Projektmitglieds Maximilian Augustin Ernst in der Projektphase 'phys. Background'\relax }{table.caption.77}{}}
\@writefile{lot}{\contentsline {table}{\numberline {A.3}{\ignorespaces Zeitaufzeichnung des Projektmitglieds Maximilian Augustin Ernst in der Projektphase 'Projektmanagement'\relax }}{80}{table.caption.78}}
\newlabel{tab:ernstPro}{{A.3}{80}{Zeitaufzeichnung des Projektmitglieds Maximilian Augustin Ernst in der Projektphase 'Projektmanagement'\relax }{table.caption.78}{}}
\@writefile{lot}{\contentsline {table}{\numberline {A.4}{\ignorespaces Zeitaufzeichnung des Projektmitglieds Maximilian Augustin Ernst in der Projektphase 'Aufbauen der Messumgebung'\relax }}{81}{table.caption.79}}
\newlabel{tab:ernstUmg}{{A.4}{81}{Zeitaufzeichnung des Projektmitglieds Maximilian Augustin Ernst in der Projektphase 'Aufbauen der Messumgebung'\relax }{table.caption.79}{}}
\@writefile{lot}{\contentsline {table}{\numberline {A.5}{\ignorespaces Zeitaufzeichnung des Projektmitglieds Maximilian Augustin Ernst in der Projektphase 'Messungen und Auswertung'\relax }}{81}{table.caption.80}}
\newlabel{tab:ernstMessuAus}{{A.5}{81}{Zeitaufzeichnung des Projektmitglieds Maximilian Augustin Ernst in der Projektphase 'Messungen und Auswertung'\relax }{table.caption.80}{}}
\@writefile{lot}{\contentsline {table}{\numberline {A.6}{\ignorespaces Gesamte Zeitaufzeichnung des Projektmitglieds Maximilian Augustin Ernst \relax }}{81}{table.caption.81}}
\newlabel{tab:ernstGesamt}{{A.6}{81}{Gesamte Zeitaufzeichnung des Projektmitglieds Maximilian Augustin Ernst \relax }{table.caption.81}{}}
\@writefile{toc}{\contentsline {section}{\numberline {A.2}Andreas Hoffmann}{82}{section.A.2}}
\@writefile{lot}{\contentsline {table}{\numberline {A.7}{\ignorespaces Zeitaufzeichnung des Projektmitglieds Andreas Hoffmann in der Projektphase 'Dokumentation'\relax }}{82}{table.caption.82}}
\newlabel{tab:hoffmannDok}{{A.7}{82}{Zeitaufzeichnung des Projektmitglieds Andreas Hoffmann in der Projektphase 'Dokumentation'\relax }{table.caption.82}{}}
\@writefile{lot}{\contentsline {table}{\numberline {A.8}{\ignorespaces Zeitaufzeichnung des Projektmitglieds Andreas Hoffmann in der Projektphase 'phys. Background'\relax }}{82}{table.caption.83}}
\newlabel{tab:hoffmannPhys}{{A.8}{82}{Zeitaufzeichnung des Projektmitglieds Andreas Hoffmann in der Projektphase 'phys. Background'\relax }{table.caption.83}{}}
\@writefile{lot}{\contentsline {table}{\numberline {A.9}{\ignorespaces Zeitaufzeichnung des Projektmitglieds Andreas Hoffmann in der Projektphase 'Projektmanagement'\relax }}{83}{table.caption.84}}
\newlabel{tab:hoffmannPro}{{A.9}{83}{Zeitaufzeichnung des Projektmitglieds Andreas Hoffmann in der Projektphase 'Projektmanagement'\relax }{table.caption.84}{}}
\@writefile{lot}{\contentsline {table}{\numberline {A.10}{\ignorespaces Zeitaufzeichnung des Projektmitglieds Andreas Hoffmann in der Projektphase 'Aufbauen der Messumgebung'\relax }}{83}{table.caption.85}}
\newlabel{tab:hoffmannMessU}{{A.10}{83}{Zeitaufzeichnung des Projektmitglieds Andreas Hoffmann in der Projektphase 'Aufbauen der Messumgebung'\relax }{table.caption.85}{}}
\@writefile{lot}{\contentsline {table}{\numberline {A.11}{\ignorespaces Zeitaufzeichnung des Projektmitglieds Andreas Hoffmann in der Projektphase 'Messungen und Auswertungen'\relax }}{83}{table.caption.86}}
\newlabel{tab:hoffmannMessuAus}{{A.11}{83}{Zeitaufzeichnung des Projektmitglieds Andreas Hoffmann in der Projektphase 'Messungen und Auswertungen'\relax }{table.caption.86}{}}
\@writefile{lot}{\contentsline {table}{\numberline {A.12}{\ignorespaces Die gesamte Zeitaufzeichnung des Projektmitglieds Andreas Hoffmann\relax }}{83}{table.caption.87}}
\newlabel{tab:hoffmannGesamt}{{A.12}{83}{Die gesamte Zeitaufzeichnung des Projektmitglieds Andreas Hoffmann\relax }{table.caption.87}{}}
\@writefile{toc}{\contentsline {section}{\numberline {A.3}Raphael Kaiser}{84}{section.A.3}}
\@writefile{lot}{\contentsline {table}{\numberline {A.13}{\ignorespaces Zeitaufzeichnung des Projektmitglieds Raphael Kaiser in der Projektphase 'Dokumentation'\relax }}{84}{table.caption.88}}
\newlabel{tab:kaiserDok}{{A.13}{84}{Zeitaufzeichnung des Projektmitglieds Raphael Kaiser in der Projektphase 'Dokumentation'\relax }{table.caption.88}{}}
\@writefile{lot}{\contentsline {table}{\numberline {A.14}{\ignorespaces Zeitaufzeichnung des Projektmitglieds Raphael Kaiser in der Projektphase 'physikalischer Background'\relax }}{84}{table.caption.89}}
\newlabel{tab:kaiserDok}{{A.14}{84}{Zeitaufzeichnung des Projektmitglieds Raphael Kaiser in der Projektphase 'physikalischer Background'\relax }{table.caption.89}{}}
\@writefile{lot}{\contentsline {table}{\numberline {A.15}{\ignorespaces Zeitaufzeichnung des Projektmitglieds Raphael Kaiser in der Projektphase 'Projektmanagement'\relax }}{84}{table.caption.90}}
\newlabel{tab:kaiserPro}{{A.15}{84}{Zeitaufzeichnung des Projektmitglieds Raphael Kaiser in der Projektphase 'Projektmanagement'\relax }{table.caption.90}{}}
\@writefile{lot}{\contentsline {table}{\numberline {A.16}{\ignorespaces Zeitaufzeichnung des Projektmitglieds Raphael Kaiser in der Projektphase 'Aufbauen der Messungen'\relax }}{85}{table.caption.91}}
\newlabel{tab:kaiserAuf}{{A.16}{85}{Zeitaufzeichnung des Projektmitglieds Raphael Kaiser in der Projektphase 'Aufbauen der Messungen'\relax }{table.caption.91}{}}
\@writefile{lot}{\contentsline {table}{\numberline {A.17}{\ignorespaces Zeitaufzeichnung des Projektmitglieds Raphael Kaiser in der Projektphase 'Messungen und Auswertungen'\relax }}{85}{table.caption.92}}
\newlabel{tab:kaiserMessuAus}{{A.17}{85}{Zeitaufzeichnung des Projektmitglieds Raphael Kaiser in der Projektphase 'Messungen und Auswertungen'\relax }{table.caption.92}{}}
\@writefile{lot}{\contentsline {table}{\numberline {A.18}{\ignorespaces Die gesamte Zeitaufzeichnung des Projektmitglieds Raphael Kaiser'\relax }}{85}{table.caption.93}}
\newlabel{tab:kaiserGesamt}{{A.18}{85}{Die gesamte Zeitaufzeichnung des Projektmitglieds Raphael Kaiser'\relax }{table.caption.93}{}}
\@writefile{toc}{\contentsline {section}{\numberline {A.4}Michael Werner}{86}{section.A.4}}
\@writefile{lot}{\contentsline {table}{\numberline {A.19}{\ignorespaces Zeitaufzeichnung des Projektmitglieds Michael Werner in der Projektphase 'Dokumentation'\relax }}{86}{table.caption.94}}
\newlabel{tab:wnrDok}{{A.19}{86}{Zeitaufzeichnung des Projektmitglieds Michael Werner in der Projektphase 'Dokumentation'\relax }{table.caption.94}{}}
\@writefile{lot}{\contentsline {table}{\numberline {A.20}{\ignorespaces Zeitaufzeichnung des Projektmitglieds Michael Werner in der Projektphase 'physikalischer Background'\relax }}{86}{table.caption.95}}
\newlabel{tab:wnrPhys}{{A.20}{86}{Zeitaufzeichnung des Projektmitglieds Michael Werner in der Projektphase 'physikalischer Background'\relax }{table.caption.95}{}}
\@writefile{lot}{\contentsline {table}{\numberline {A.21}{\ignorespaces Zeitaufzeichnung des Projektmitglieds Michael Werner in der Projektphase 'Projektmanagement'\relax }}{86}{table.caption.96}}
\newlabel{tab:wnrPro}{{A.21}{86}{Zeitaufzeichnung des Projektmitglieds Michael Werner in der Projektphase 'Projektmanagement'\relax }{table.caption.96}{}}
\@writefile{lot}{\contentsline {table}{\numberline {A.22}{\ignorespaces Zeitaufzeichnung des Projektmitglieds Michael Werner in der Projektphase 'Aufbauen der Messumgebung'\relax }}{87}{table.caption.97}}
\newlabel{tab:wnrAuf}{{A.22}{87}{Zeitaufzeichnung des Projektmitglieds Michael Werner in der Projektphase 'Aufbauen der Messumgebung'\relax }{table.caption.97}{}}
\@writefile{lot}{\contentsline {table}{\numberline {A.23}{\ignorespaces Zeitaufzeichnung des Projektmitglieds Michael Werner in der Projektphase 'Messungen und Auswertung'\relax }}{87}{table.caption.98}}
\newlabel{tab:wnrMess}{{A.23}{87}{Zeitaufzeichnung des Projektmitglieds Michael Werner in der Projektphase 'Messungen und Auswertung'\relax }{table.caption.98}{}}
\@writefile{lot}{\contentsline {table}{\numberline {A.24}{\ignorespaces Die gesamte Zeitaufzeichnung des Projektmitglieds Michael Werner\relax }}{87}{table.caption.99}}
\newlabel{tab:wnrGesamt}{{A.24}{87}{Die gesamte Zeitaufzeichnung des Projektmitglieds Michael Werner\relax }{table.caption.99}{}}
\@writefile{toc}{\contentsline {chapter}{\numberline {B}Genehmigung f\IeC {\"u}r das Betreten des TGM-Dachs}{89}{appendix.B}}
\@writefile{lof}{\addvspace {10\p@ }}
\@writefile{lot}{\addvspace {10\p@ }}
\newlabel{anh:gen}{{B}{89}{Genehmigung für das Betreten des TGM-Dachs}{appendix.B}{}}
\providecommand\NAT@force@numbers{}\NAT@force@numbers
