\select@language {ngerman}
\select@language {ngerman}
\select@language {ngerman}
\select@language {ngerman}
\addvspace {10\p@ }
\addvspace {10\p@ }
\contentsline {table}{\numberline {1.1}{\ignorespaces D\IeC {\"a}mpfung durch Materialien \citep {end2012}\relax }}{13}{table.caption.26}
\addvspace {10\p@ }
\addvspace {10\p@ }
\addvspace {10\p@ }
\contentsline {table}{\numberline {4.1}{\ignorespaces \IeC {\"U}bersicht der ben\IeC {\"o}tigten Materialien im Projekt\relax }}{36}{table.4.1}
\contentsline {table}{\numberline {4.2}{\ignorespaces \IeC {\"U}bersicht der Projektausgaben f\IeC {\"u}r etwaige Materialien\relax }}{37}{table.4.2}
\addvspace {10\p@ }
\addvspace {10\p@ }
\contentsline {table}{\numberline {6.1}{\ignorespaces Tabelle, die zu jedem SWR-Wert die reflektierte Leistung und 2 Widerst\IeC {\"a}nde, bei dem er zustande kommt, veranschaulicht \cite {schoa2010anp}\relax }}{65}{table.caption.70}
\contentsline {table}{\numberline {6.2}{\ignorespaces Tabelle, welche f\IeC {\"u}r ${Z_{in}}$=50$\Omega $ gilt \cite {schoa2010anp}\relax }}{68}{table.caption.72}
\addvspace {10\p@ }
\addvspace {10\p@ }
\contentsline {table}{\numberline {A.1}{\ignorespaces Zeitaufzeichnung des Projektmitglieds Maximilian Augustin Ernst in der Projektphase 'Dokumentation'\relax }}{80}{table.caption.76}
\contentsline {table}{\numberline {A.2}{\ignorespaces Zeitaufzeichnung des Projektmitglieds Maximilian Augustin Ernst in der Projektphase 'phys. Background'\relax }}{80}{table.caption.77}
\contentsline {table}{\numberline {A.3}{\ignorespaces Zeitaufzeichnung des Projektmitglieds Maximilian Augustin Ernst in der Projektphase 'Projektmanagement'\relax }}{80}{table.caption.78}
\contentsline {table}{\numberline {A.4}{\ignorespaces Zeitaufzeichnung des Projektmitglieds Maximilian Augustin Ernst in der Projektphase 'Aufbauen der Messumgebung'\relax }}{81}{table.caption.79}
\contentsline {table}{\numberline {A.5}{\ignorespaces Zeitaufzeichnung des Projektmitglieds Maximilian Augustin Ernst in der Projektphase 'Messungen und Auswertung'\relax }}{81}{table.caption.80}
\contentsline {table}{\numberline {A.6}{\ignorespaces Gesamte Zeitaufzeichnung des Projektmitglieds Maximilian Augustin Ernst \relax }}{81}{table.caption.81}
\contentsline {table}{\numberline {A.7}{\ignorespaces Zeitaufzeichnung des Projektmitglieds Andreas Hoffmann in der Projektphase 'Dokumentation'\relax }}{82}{table.caption.82}
\contentsline {table}{\numberline {A.8}{\ignorespaces Zeitaufzeichnung des Projektmitglieds Andreas Hoffmann in der Projektphase 'phys. Background'\relax }}{82}{table.caption.83}
\contentsline {table}{\numberline {A.9}{\ignorespaces Zeitaufzeichnung des Projektmitglieds Andreas Hoffmann in der Projektphase 'Projektmanagement'\relax }}{83}{table.caption.84}
\contentsline {table}{\numberline {A.10}{\ignorespaces Zeitaufzeichnung des Projektmitglieds Andreas Hoffmann in der Projektphase 'Aufbauen der Messumgebung'\relax }}{83}{table.caption.85}
\contentsline {table}{\numberline {A.11}{\ignorespaces Zeitaufzeichnung des Projektmitglieds Andreas Hoffmann in der Projektphase 'Messungen und Auswertungen'\relax }}{83}{table.caption.86}
\contentsline {table}{\numberline {A.12}{\ignorespaces Die gesamte Zeitaufzeichnung des Projektmitglieds Andreas Hoffmann\relax }}{83}{table.caption.87}
\contentsline {table}{\numberline {A.13}{\ignorespaces Zeitaufzeichnung des Projektmitglieds Raphael Kaiser in der Projektphase 'Dokumentation'\relax }}{84}{table.caption.88}
\contentsline {table}{\numberline {A.14}{\ignorespaces Zeitaufzeichnung des Projektmitglieds Raphael Kaiser in der Projektphase 'physikalischer Background'\relax }}{84}{table.caption.89}
\contentsline {table}{\numberline {A.15}{\ignorespaces Zeitaufzeichnung des Projektmitglieds Raphael Kaiser in der Projektphase 'Projektmanagement'\relax }}{84}{table.caption.90}
\contentsline {table}{\numberline {A.16}{\ignorespaces Zeitaufzeichnung des Projektmitglieds Raphael Kaiser in der Projektphase 'Aufbauen der Messungen'\relax }}{85}{table.caption.91}
\contentsline {table}{\numberline {A.17}{\ignorespaces Zeitaufzeichnung des Projektmitglieds Raphael Kaiser in der Projektphase 'Messungen und Auswertungen'\relax }}{85}{table.caption.92}
\contentsline {table}{\numberline {A.18}{\ignorespaces Die gesamte Zeitaufzeichnung des Projektmitglieds Raphael Kaiser'\relax }}{85}{table.caption.93}
\contentsline {table}{\numberline {A.19}{\ignorespaces Zeitaufzeichnung des Projektmitglieds Michael Werner in der Projektphase 'Dokumentation'\relax }}{86}{table.caption.94}
\contentsline {table}{\numberline {A.20}{\ignorespaces Zeitaufzeichnung des Projektmitglieds Michael Werner in der Projektphase 'physikalischer Background'\relax }}{86}{table.caption.95}
\contentsline {table}{\numberline {A.21}{\ignorespaces Zeitaufzeichnung des Projektmitglieds Michael Werner in der Projektphase 'Projektmanagement'\relax }}{86}{table.caption.96}
\contentsline {table}{\numberline {A.22}{\ignorespaces Zeitaufzeichnung des Projektmitglieds Michael Werner in der Projektphase 'Aufbauen der Messumgebung'\relax }}{87}{table.caption.97}
\contentsline {table}{\numberline {A.23}{\ignorespaces Zeitaufzeichnung des Projektmitglieds Michael Werner in der Projektphase 'Messungen und Auswertung'\relax }}{87}{table.caption.98}
\contentsline {table}{\numberline {A.24}{\ignorespaces Die gesamte Zeitaufzeichnung des Projektmitglieds Michael Werner\relax }}{87}{table.caption.99}
\addvspace {10\p@ }
